{
  "count": 457,
  "next": "http://p7.ishraak.com/api/job_list/?page=2&page_size=2",
  "previous": null,
  "results": [
    {
      "job_id": "00cb60c7-f699-47be-b7f0-8a18af3927aa",
      "title": "React Native Developer",
      "job_location": "Road:8, House-1, Block-J, Baridhara,Dhaka",
      "salary_min": "35000.00",
      "salary_max": "45000.00",
      "vacancy": 1,
      "application_deadline": "2020-03-07",
      "descriptions": "We are looking for a React Native developer interested in building mobile apps on both the IOS and Android platforms using React Native for highly scalable E commerce solutions.\r\n\r\nMust have hands on experience on developing IOS and android apps using React Native framework.\r\nAbility to write well - documented, clean JavaScript code including ES6+ syntax Knowledge of ((functional or object - oriented))\r\nFamiliarity with native build tools, like XCode, Gradle ((Android Studio, IntelliJ))\r\nUnderstanding of REST APIs, the document request model, and offline storage.\r\nGood understanding of React Design Principles.\r\nDevelopment experience with EXPO SDK is a big plus.\r\n\r\n\r\nGood to Have\r\n-------------------------\r\nExperience with REST APIs.\r\nFamiliarity with the Git version control system.\r\nFamiliarity with DevOps processes and tools (AWS, Docker, Cloudflare etc).\r\nKnowledge with Wordpress (Woocommerce) APIs and plugins.\r\n\r\nExperience\r\n------------------\r\n**Candidates with portfolio showcasing past relevant works will be given preference.\r\n\r\n\r\nPlease review the job description in detail and make sure you absolutely meet the job requirements.\r\nIf you do then:\r\n- Send your resume to \"smbddrive@gmail.com” with the email subject \"Application for the post - React Developer”. Please send the resume in PDF format.",
      "responsibilities": "Key Responsibilities\r\n------------------------\r\nDevelop highly scalable E-commerce app (IOS and Android) using React Native.\r\nEnsuring high-performance and availability, and managing all technical aspects of the app.",
      "education": "",
      "salary": null,
      "other_benefits": "Regular working hours: 8 hours/day, 5 days a week.\r\nLunch and Travel allowance.\r\nYearly paid leave 20 days.\r\nFestival Bonus (Twice in a Year)\r\nProfit Bonus (Yearly)\r\nAnnual performance evaluation and increment.",
      "zipcode": null,
      "company_location": null,
      "company_profile": null,
      "latitude": null,
      "longitude": null,
      "raw_content": "Job opportunity for React Native Developers\r\n\r\nPosition: Mid-level React Native mobile application developer\r\nNumber of vacancies: 01\r\n\r\nWe are looking for a React Native developer interested in building mobile apps on both the IOS and Android platforms using React Native for highly scalable E commerce solutions.\r\n\r\nKey Responsibilities\r\n------------------------\r\nDevelop highly scalable E-commerce app (IOS and Android) using React Native.\r\nEnsuring high-performance and availability, and managing all technical aspects of the app.\r\n\r\nJob requirements\r\n-----------------------\r\n\r\nMust have hands on experience on developing IOS and android apps using React Native framework.\r\nAbility to write well - documented, clean JavaScript code including ES6+ syntax Knowledge of ((functional or object - oriented))\r\nFamiliarity with native build tools, like XCode, Gradle ((Android Studio, IntelliJ))\r\nUnderstanding of REST APIs, the document request model, and offline storage.\r\nGood understanding of React Design Principles.\r\nDevelopment experience with EXPO SDK is a big plus.\r\n\r\n\r\nGood to Have\r\n-------------------------\r\nExperience with REST APIs.\r\nFamiliarity with the Git version control system.\r\nFamiliarity with DevOps processes and tools (AWS, Docker, Cloudflare etc).\r\nKnowledge with Wordpress (Woocommerce) APIs and plugins.\r\n\r\nExperience\r\n------------------\r\n- At least 2 years experience in App Developments.\r\n\r\n**Candidates with portfolio showcasing past relevant works will be given preference.\r\n\r\n\r\nSalary And Benefits\r\n---------------------------\r\n- Range BDT 35K - 45K. Will be determined based on experience and qualification.\r\n- Regular working hours: 8 hours/day, 5 days a week.\r\n- Lunch and Travel allowance.\r\n- Yearly paid leave 20 days.\r\n- Festival Bonus (Twice in a Year)\r\n- Profit Bonus (Yearly)\r\n- Annual performance evaluation and increment.\r\n\r\nPlease review the job description in detail and make sure you absolutely meet the job requirements.\r\nIf you do then:\r\n- Send your resume to \"smbddrive@gmail.com” with the email subject \"Application for the post - React Developer”. Please send the resume in PDF format.\r\n\r\nApplication Deadline: 07 March 2020\r\nAddress:Road:8, House-1, Block-J, Baridhara,Dhaka",
      "web_address": "https://www.facebook.com/job_opening/226690775177453/?source=post_permlink",
      "terms_and_condition": false,
      "created_date": "2020-02-29",
      "industry": "Software & ITES",
      "employment_status": "Permanent (Full-time)",
      "experience": "2",
      "qualification": null,
      "gender": "Any",
      "currency": "BDT",
      "company_name": "SmartMomBD",
      "division": null,
      "district": null,
      "job_skills": []
    },
    {
      "job_id": "035f0a64-b528-45f8-a9d7-599105155a05",
      "title": "Trainee (CMS Development)",
      "job_location": "Dhaka",
      "salary_min": "12000.00",
      "salary_max": "15000.00",
      "vacancy": 1,
      "application_deadline": "2020-03-29",
      "descriptions": "-Freshers Can Apply\r\n-The applicants should have experience in the following business area(s): Software Development, IT Enabled Service\r\n\r\nAdditional Requirements\r\n-Age 23 to 35 years\r\n-Both males and females are allowed to apply\r\n-Must have strong commutation skill in English, both written & spoken\r\n-Sound interpersonal & Team working skills.\r\n-Ability to take multiple assignments.\r\n-Should be able to work extended hours if needed.\r\n\r\nCompany Rules & Benefits: As per Company policy.\r\n\r\nApply Instructions: E-mail your CV by 29th March",
      "responsibilities": "-Should have good knowledge on Core PHP, MySQL, HTML5, XML, CSS3, JavaScript, Ajax, jQuery.\r\n-A background in object-oriented design and development strategies\r\n-Should have experience with various CMS platforms: Wordpress, Joomla, Drupal",
      "education": "-B. Sc in Computer Science or related subject (Educational qualification can be compromised if enough experienced and self-motivated).",
      "salary": null,
      "other_benefits": "",
      "zipcode": "1213",
      "company_location": "House-16, Road-10A, Block-H, Banani, Dhaka-1213",
      "company_profile": null,
      "latitude": null,
      "longitude": null,
      "raw_content": "Job Responsibilities:\r\n-Should have good knowledge on Core PHP, MySQL, HTML5, XML, CSS3, JavaScript, Ajax, jQuery.\r\n-A background in object-oriented design and development strategies\r\n-Should have experience with various CMS platforms: Wordpress, Joomla, Drupal\r\n\r\nCompany Name: Union Mercantile Solutions\r\n\r\nNo of Post Vacant: 1\r\n\r\nJob Type: · Full-time\r\n\r\nJob Location/Address: House-16, Road-10A, Block-H, Banani, Dhaka-1213\r\n\r\nJob Requirements:\r\n\r\nEducational Requirements\r\n-B. Sc in Computer Science or related subject (Educational qualification can be compromised if enough experienced and self-motivated).\r\n\r\nExperience Requirements\r\n-Freshers Can Apply\r\n-The applicants should have experience in the following business area(s): Software Development, IT Enabled Service\r\n\r\nAdditional Requirements\r\n-Age 23 to 35 years\r\n-Both males and females are allowed to apply\r\n-Must have strong commutation skill in English, both written & spoken\r\n-Sound interpersonal & Team working skills.\r\n-Ability to take multiple assignments.\r\n-Should be able to work extended hours if needed.\r\n\r\nCompany Rules & Benefits: As per Company policy.\r\n\r\nApply Instructions: E-mail your CV by 29th March\r\n\r\nContact info:\r\nEmail: solutions@umltech.net",
      "web_address": "https://www.facebook.com/groups/eee.cse/permalink/3318246318204372/",
      "terms_and_condition": false,
      "created_date": "2020-03-19",
      "industry": "Software & ITES",
      "employment_status": "Permanent (Full-time)",
      "experience": null,
      "qualification": "BSc in CSE or Equivalent",
      "gender": "Any",
      "currency": "BDT",
      "company_name": "Union Mercantile Solutions",
      "division": null,
      "district": null,
      "job_skills": []
    }
  ]
}